{
  "type": "service_account",
  "project_id": "get-data-296204",
  "private_key_id": "954758f90b2a111af8c8e6f7cdcfe0001d791514",
  "private_key": "-----BEGIN PRIVATE KEY-----\nMIIEvgIBADANBgkqhkiG9w0BAQEFAASCBKgwggSkAgEAAoIBAQDDqPiN9+aZZdJ3\nT0t4XRQsqB6iTo4C7IzsKSTSv50yjciswqs5s5X49BRejO9Kdxr7FPTo4D764v99\nUg7nrDNt6n8TUWykfGWSI3IKRcIrPc2QclcutTyChZpTXwQToxZs1it9IuH5YEmo\nR3S9o5xhyIl6z4lD+8yu2orYlKSvoQCzoJxZyZ+LQ0dhXhZDGaE35Dt82P/tW/VB\n4a9DEv8l+3zhmsuyxNx61hoGVLpwvB+BxutKO4wDCo3WmkNL7x6sX/x1aSc9TYyD\nLAxfo4slbl7LblFBRTmf8Ds6icZUgFkioIa/Wy33Rcr25NBHIS/VKEjx435hVfty\nDCDq1jC/AgMBAAECggEANdeBMnwV8n+BF8Dz2Tbv7swCxhJM5QQYUYKO9gmxpfA7\nWUMmoDXJntz33/7zeG/nNlHRhWX0HtEpkmBq5pjN/EDL4FKHTYpH3xuu7aG9qW2T\n7FxynlFUSeyfB7M9aXP3H1MeW4ymV5wGGO808lycE5J+NpP2x4T6keFk1O2ulf+C\nC/kK51M92+n1/4SJihpk1Ak6O6DriNFWSETCF3ds6tv+HbC+Copb0a36MwEx/m0e\nUsgjJ5h2J1php6uF73auTAj2V/nL9w3ITrnGnLSg2N08JaVpz8dpPlWJessadxev\nvOcRu2j5eQE41iMP2K7uoBPeJiuITzfn3BH1XiRUYQKBgQD0gXLoBRFX0fWffUqJ\n6hpB3NyCznxWKnP/M3ddlwEzgQToUYGQHpqD6iTVGIBk65lk7dEy2Tql9wCwkPPx\n9JQygwt0idiajWqKilZpXRTssFQ5bbYivwa+auoWaHtZ3BNKDqL1kQY6CWJxks6H\nOpocgQ0FiQxZcGGhHmRACfzF3wKBgQDM264QiVpXkDJ3bfAWmRbH8gkzcuAmNKcP\nZJXoJKm7xTOMWwaBl3eY463tlItWEmrD1aQHcMKzGo89l3P5P0WMV49HWuMWWjkx\n2DaTqlpb+aWcoJAcGFiZi6UlFBVRniWpDqfpmE1CxMbMVHsnxbgND7GXqAqH0fTl\n8wTJIr8xIQKBgQCEjT0HDeBGFNws95aWR+SuOhcNjvWXHPK/sl4OzdNn4ZUQgUdV\nI1IvG5uWLu9ERvlk3wyfnWaPHOYx0pN9Y1OIQsTODADyYKIWs0J/Ymf6nOk8LP8l\nvRvh1UJMnZ3prEaEyoSLznBqvDWzTpxKcXmk5E1z58VbI3K6DyjYEtIHTwKBgBp5\nBPxkE4WfP7ZJQa5Z6CS8dU3tuWOWiEQn9mtCWaDHMgsgNC4I+c6LFY3PFVZxGNTn\nxcOkYbStaPdHnBgIgh9JrV1GNHROAngbfaoFaJncH/emlBjdWI23CwdImhyq+Cjp\nmO9J3CoVra7399ZC6a7eaU+0ym+UxTX1+pdXYyehAoGBAMVbGUEGFGCndUNIM0IB\ncWcRxRXrehdJ4qsrBBM99KouTfSaivQB8bkcxcMRmUx8AW9K3qJULhz8yTQD1QJ/\nUV8JEfKhu8Ix9jeoArYHw9iFING8N3ot3G1qEyCY1sorDj3McZ+pB/ziM4cZ6ENj\nk3jIdwcka/ojbwXSVx0i5kxz\n-----END PRIVATE KEY-----\n",
  "client_email": "sen-ndawal@get-data-296204.iam.gserviceaccount.com",
  "client_id": "113188473080086209062",
  "auth_uri": "https://accounts.google.com/o/oauth2/auth",
  "token_uri": "https://oauth2.googleapis.com/token",
  "auth_provider_x509_cert_url": "https://www.googleapis.com/oauth2/v1/certs",
  "client_x509_cert_url": "https://www.googleapis.com/robot/v1/metadata/x509/sen-ndawal%40get-data-296204.iam.gserviceaccount.com"
}
